{
  "warnings": [
    {
      "file": "/Users/jenkins/Home/workspace/LicenseBuilds/build-ios-license/build/ios/THEOplayer_SDK/Core/API/EventListener_API.swift",
      "line": 7,
      "symbol": "EventListener",
      "symbol_kind": "source.lang.swift.decl.protocol",
      "warning": "undocumented"
    },
    {
      "file": "/Users/jenkins/Home/workspace/LicenseBuilds/build-ios-license/build/ios/THEOplayer_SDK/Core/API/MediaTrackList_API.swift",
      "line": 26,
      "symbol": "VideoTrackList",
      "symbol_kind": "source.lang.swift.decl.protocol",
      "warning": "undocumented"
    },
    {
      "file": "/Users/jenkins/Home/workspace/LicenseBuilds/build-ios-license/build/ios/THEOplayer_SDK/Core/API/MediaTrackList_API.swift",
      "line": 30,
      "symbol": "AudioTrackList",
      "symbol_kind": "source.lang.swift.decl.protocol",
      "warning": "undocumented"
    },
    {
      "file": "/Users/jenkins/Home/workspace/LicenseBuilds/build-ios-license/build/ios/THEOplayer_SDK/Core/API/THEOplayer_API.swift",
      "line": 20,
      "symbol": "THEOplayer.isDestroyed",
      "symbol_kind": "source.lang.swift.decl.var.instance",
      "warning": "undocumented"
    },
    {
      "file": "/Users/jenkins/Home/workspace/LicenseBuilds/build-ios-license/build/ios/THEOplayer_SDK/Core/API/TextTrackKind_API.swift",
      "line": 11,
      "symbol": "TextTrackKind",
      "symbol_kind": "source.lang.swift.decl.enum",
      "warning": "undocumented"
    },
    {
      "file": "/Users/jenkins/Home/workspace/LicenseBuilds/build-ios-license/build/ios/THEOplayer_SDK/Core/API/TypedSource_API.swift",
      "line": 11,
      "symbol": "CrossOrigin",
      "symbol_kind": "source.lang.swift.decl.enum",
      "warning": "undocumented"
    },
    {
      "file": "/Users/jenkins/Home/workspace/LicenseBuilds/build-ios-license/build/ios/THEOplayer_SDK/Core/Event/EventDispatcher.swift",
      "line": 9,
      "symbol": "EventDispatcher",
      "symbol_kind": "source.lang.swift.decl.class",
      "warning": "undocumented"
    },
    {
      "file": "/Users/jenkins/Home/workspace/LicenseBuilds/build-ios-license/build/ios/THEOplayer_SDK/Core/Event/EventProtocol.swift",
      "line": 9,
      "symbol": "EventProtocol",
      "symbol_kind": "source.lang.swift.decl.protocol",
      "warning": "undocumented"
    },
    {
      "file": "/Users/jenkins/Home/workspace/LicenseBuilds/build-ios-license/build/ios/THEOplayer_SDK/Core/Event/EventTypes.swift",
      "line": 14,
      "symbol": "EventType",
      "symbol_kind": "source.lang.swift.decl.class",
      "warning": "undocumented"
    },
    {
      "file": "/Users/jenkins/Home/workspace/LicenseBuilds/build-ios-license/build/ios/THEOplayer_SDK/Core/Event/Player/PlayerEventTypes.swift",
      "line": 165,
      "symbol": "PlayerEventTypes",
      "symbol_kind": "source.lang.swift.decl.struct",
      "warning": "undocumented"
    },
    {
      "file": "/Users/jenkins/Home/workspace/LicenseBuilds/build-ios-license/build/ios/THEOplayer_SDK/Core/Event/Player/PlayerEvents.swift",
      "line": 9,
      "symbol": "CurrentTimeEvent",
      "symbol_kind": "source.lang.swift.decl.class",
      "warning": "undocumented"
    },
    {
      "file": "/Users/jenkins/Home/workspace/LicenseBuilds/build-ios-license/build/ios/THEOplayer_SDK/Core/Event/Player/PlayerEvents.swift",
      "line": 60,
      "symbol": "ProgressEvent.mediatype",
      "symbol_kind": "source.lang.swift.decl.var.instance",
      "warning": "undocumented"
    },
    {
      "file": "/Users/jenkins/Home/workspace/LicenseBuilds/build-ios-license/build/ios/THEOplayer_SDK/Core/Event/Player/PlayerEvents.swift",
      "line": 61,
      "symbol": "ProgressEvent.representationId",
      "symbol_kind": "source.lang.swift.decl.var.instance",
      "warning": "undocumented"
    },
    {
      "file": "/Users/jenkins/Home/workspace/LicenseBuilds/build-ios-license/build/ios/THEOplayer_SDK/Core/Event/Player/PlayerEvents.swift",
      "line": 62,
      "symbol": "ProgressEvent.buffered",
      "symbol_kind": "source.lang.swift.decl.var.instance",
      "warning": "undocumented"
    },
    {
      "file": "/Users/jenkins/Home/workspace/LicenseBuilds/build-ios-license/build/ios/THEOplayer_SDK/Core/Event/Player/PlayerEvents.swift",
      "line": 128,
      "symbol": "RateChangeEvent.playbackRate",
      "symbol_kind": "source.lang.swift.decl.var.instance",
      "warning": "undocumented"
    },
    {
      "file": "/Users/jenkins/Home/workspace/LicenseBuilds/build-ios-license/build/ios/THEOplayer_SDK/Core/Event/Player/PlayerEvents.swift",
      "line": 140,
      "symbol": "DurationChangeEvent.type",
      "symbol_kind": "source.lang.swift.decl.var.instance",
      "warning": "undocumented"
    },
    {
      "file": "/Users/jenkins/Home/workspace/LicenseBuilds/build-ios-license/build/ios/THEOplayer_SDK/Core/Event/Player/PlayerEvents.swift",
      "line": 141,
      "symbol": "DurationChangeEvent.date",
      "symbol_kind": "source.lang.swift.decl.var.instance",
      "warning": "undocumented"
    },
    {
      "file": "/Users/jenkins/Home/workspace/LicenseBuilds/build-ios-license/build/ios/THEOplayer_SDK/Core/Event/Player/PlayerEvents.swift",
      "line": 143,
      "symbol": "DurationChangeEvent.duration",
      "symbol_kind": "source.lang.swift.decl.var.instance",
      "warning": "undocumented"
    },
    {
      "file": "/Users/jenkins/Home/workspace/LicenseBuilds/build-ios-license/build/ios/THEOplayer_SDK/Core/Event/Player/PlayerEvents.swift",
      "line": 151,
      "symbol": "SourceChangeEvent",
      "symbol_kind": "source.lang.swift.decl.class",
      "warning": "undocumented"
    },
    {
      "file": "/Users/jenkins/Home/workspace/LicenseBuilds/build-ios-license/build/ios/THEOplayer_SDK/Core/Event/Player/PlayerEvents.swift",
      "line": 163,
      "symbol": "ReadyStateEvent",
      "symbol_kind": "source.lang.swift.decl.class",
      "warning": "undocumented"
    },
    {
      "file": "/Users/jenkins/Home/workspace/LicenseBuilds/build-ios-license/build/ios/THEOplayer_SDK/Core/Event/Player/PlayerEvents.swift",
      "line": 242,
      "symbol": "ErrorEvent.type",
      "symbol_kind": "source.lang.swift.decl.var.instance",
      "warning": "undocumented"
    },
    {
      "file": "/Users/jenkins/Home/workspace/LicenseBuilds/build-ios-license/build/ios/THEOplayer_SDK/Core/Event/Player/PlayerEvents.swift",
      "line": 243,
      "symbol": "ErrorEvent.date",
      "symbol_kind": "source.lang.swift.decl.var.instance",
      "warning": "undocumented"
    },
    {
      "file": "/Users/jenkins/Home/workspace/LicenseBuilds/build-ios-license/build/ios/THEOplayer_SDK/Core/Event/Player/PlayerEvents.swift",
      "line": 245,
      "symbol": "ErrorEvent.error",
      "symbol_kind": "source.lang.swift.decl.var.instance",
      "warning": "undocumented"
    },
    {
      "file": "/Users/jenkins/Home/workspace/LicenseBuilds/build-ios-license/build/ios/THEOplayer_SDK/Core/Event/Player/PlayerEvents.swift",
      "line": 257,
      "symbol": "PresentationModeChangeEvent.type",
      "symbol_kind": "source.lang.swift.decl.var.instance",
      "warning": "undocumented"
    },
    {
      "file": "/Users/jenkins/Home/workspace/LicenseBuilds/build-ios-license/build/ios/THEOplayer_SDK/Core/Event/Player/PlayerEvents.swift",
      "line": 258,
      "symbol": "PresentationModeChangeEvent.date",
      "symbol_kind": "source.lang.swift.decl.var.instance",
      "warning": "undocumented"
    },
    {
      "file": "/Users/jenkins/Home/workspace/LicenseBuilds/build-ios-license/build/ios/THEOplayer_SDK/Core/Event/Player/PlayerEvents.swift",
      "line": 259,
      "symbol": "PresentationModeChangeEvent.presentationMode",
      "symbol_kind": "source.lang.swift.decl.var.instance",
      "warning": "undocumented"
    },
    {
      "file": "/Users/jenkins/Home/workspace/LicenseBuilds/build-ios-license/build/ios/THEOplayer_SDK/Core/Event/Player/PlayerEvents.swift",
      "line": 273,
      "symbol": "VolumeChangeEvent.volume",
      "symbol_kind": "source.lang.swift.decl.var.instance",
      "warning": "undocumented"
    },
    {
      "file": "/Users/jenkins/Home/workspace/LicenseBuilds/build-ios-license/build/ios/THEOplayer_SDK/Core/Event/Player/PlayerEvents.swift",
      "line": 285,
      "symbol": "ResizeEvent.type",
      "symbol_kind": "source.lang.swift.decl.var.instance",
      "warning": "undocumented"
    },
    {
      "file": "/Users/jenkins/Home/workspace/LicenseBuilds/build-ios-license/build/ios/THEOplayer_SDK/Core/Event/Player/PlayerEvents.swift",
      "line": 286,
      "symbol": "ResizeEvent.date",
      "symbol_kind": "source.lang.swift.decl.var.instance",
      "warning": "undocumented"
    },
    {
      "file": "/Users/jenkins/Home/workspace/LicenseBuilds/build-ios-license/build/ios/THEOplayer_SDK/Core/Event/Player/PlayerEvents.swift",
      "line": 297,
      "symbol": "DestroyEvent.type",
      "symbol_kind": "source.lang.swift.decl.var.instance",
      "warning": "undocumented"
    },
    {
      "file": "/Users/jenkins/Home/workspace/LicenseBuilds/build-ios-license/build/ios/THEOplayer_SDK/Core/Event/Player/PlayerEvents.swift",
      "line": 298,
      "symbol": "DestroyEvent.date",
      "symbol_kind": "source.lang.swift.decl.var.instance",
      "warning": "undocumented"
    },
    {
      "file": "/Users/jenkins/Home/workspace/LicenseBuilds/build-ios-license/build/ios/THEOplayer_SDK/Core/Event/Player/TrackLists/AudioTrackList/AudioTrackListEventTypes.swift",
      "line": 32,
      "symbol": "AudioTrackListEventTypes",
      "symbol_kind": "source.lang.swift.decl.struct",
      "warning": "undocumented"
    },
    {
      "file": "/Users/jenkins/Home/workspace/LicenseBuilds/build-ios-license/build/ios/THEOplayer_SDK/Core/Event/Player/TrackLists/TextTrackList/TextTrack/Cue/CueEventTypes.swift",
      "line": 24,
      "symbol": "TextTrackCueEventTypes",
      "symbol_kind": "source.lang.swift.decl.struct",
      "warning": "undocumented"
    },
    {
      "file": "/Users/jenkins/Home/workspace/LicenseBuilds/build-ios-license/build/ios/THEOplayer_SDK/Core/Event/Player/TrackLists/TextTrackList/TextTrack/Cue/CueEvents.swift",
      "line": 10,
      "symbol": "CueEventProtocol",
      "symbol_kind": "source.lang.swift.decl.protocol",
      "warning": "undocumented"
    },
    {
      "file": "/Users/jenkins/Home/workspace/LicenseBuilds/build-ios-license/build/ios/THEOplayer_SDK/Core/Event/Player/TrackLists/TextTrackList/TextTrack/Cue/CueEvents.swift",
      "line": 16,
      "symbol": "CueEnterEvent.type",
      "symbol_kind": "source.lang.swift.decl.var.instance",
      "warning": "undocumented"
    },
    {
      "file": "/Users/jenkins/Home/workspace/LicenseBuilds/build-ios-license/build/ios/THEOplayer_SDK/Core/Event/Player/TrackLists/TextTrackList/TextTrack/Cue/CueEvents.swift",
      "line": 17,
      "symbol": "CueEnterEvent.date",
      "symbol_kind": "source.lang.swift.decl.var.instance",
      "warning": "undocumented"
    },
    {
      "file": "/Users/jenkins/Home/workspace/LicenseBuilds/build-ios-license/build/ios/THEOplayer_SDK/Core/Event/Player/TrackLists/TextTrackList/TextTrack/Cue/CueEvents.swift",
      "line": 18,
      "symbol": "CueEnterEvent.cue",
      "symbol_kind": "source.lang.swift.decl.var.instance",
      "warning": "undocumented"
    },
    {
      "file": "/Users/jenkins/Home/workspace/LicenseBuilds/build-ios-license/build/ios/THEOplayer_SDK/Core/Event/Player/TrackLists/TextTrackList/TextTrack/Cue/CueEvents.swift",
      "line": 28,
      "symbol": "CueExitEvent.type",
      "symbol_kind": "source.lang.swift.decl.var.instance",
      "warning": "undocumented"
    },
    {
      "file": "/Users/jenkins/Home/workspace/LicenseBuilds/build-ios-license/build/ios/THEOplayer_SDK/Core/Event/Player/TrackLists/TextTrackList/TextTrack/Cue/CueEvents.swift",
      "line": 29,
      "symbol": "CueExitEvent.date",
      "symbol_kind": "source.lang.swift.decl.var.instance",
      "warning": "undocumented"
    },
    {
      "file": "/Users/jenkins/Home/workspace/LicenseBuilds/build-ios-license/build/ios/THEOplayer_SDK/Core/Event/Player/TrackLists/TextTrackList/TextTrack/Cue/CueEvents.swift",
      "line": 30,
      "symbol": "CueExitEvent.cue",
      "symbol_kind": "source.lang.swift.decl.var.instance",
      "warning": "undocumented"
    },
    {
      "file": "/Users/jenkins/Home/workspace/LicenseBuilds/build-ios-license/build/ios/THEOplayer_SDK/Core/Event/Player/TrackLists/TextTrackList/TextTrack/TextTrackEventTypes.swift",
      "line": 37,
      "symbol": "TextTrackEventTypes",
      "symbol_kind": "source.lang.swift.decl.struct",
      "warning": "undocumented"
    },
    {
      "file": "/Users/jenkins/Home/workspace/LicenseBuilds/build-ios-license/build/ios/THEOplayer_SDK/Core/Event/Player/TrackLists/TextTrackList/TextTrack/TextTrackEvents.swift",
      "line": 11,
      "symbol": "CueChangeEvent.type",
      "symbol_kind": "source.lang.swift.decl.var.instance",
      "warning": "undocumented"
    },
    {
      "file": "/Users/jenkins/Home/workspace/LicenseBuilds/build-ios-license/build/ios/THEOplayer_SDK/Core/Event/Player/TrackLists/TextTrackList/TextTrack/TextTrackEvents.swift",
      "line": 12,
      "symbol": "CueChangeEvent.date",
      "symbol_kind": "source.lang.swift.decl.var.instance",
      "warning": "undocumented"
    },
    {
      "file": "/Users/jenkins/Home/workspace/LicenseBuilds/build-ios-license/build/ios/THEOplayer_SDK/Core/Event/Player/TrackLists/TextTrackList/TextTrack/TextTrackEvents.swift",
      "line": 13,
      "symbol": "CueChangeEvent.track",
      "symbol_kind": "source.lang.swift.decl.var.instance",
      "warning": "undocumented"
    },
    {
      "file": "/Users/jenkins/Home/workspace/LicenseBuilds/build-ios-license/build/ios/THEOplayer_SDK/Core/Event/Player/TrackLists/TextTrackList/TextTrack/TextTrackEvents.swift",
      "line": 21,
      "symbol": "TextTrackCueEventProtocol",
      "symbol_kind": "source.lang.swift.decl.protocol",
      "warning": "undocumented"
    },
    {
      "file": "/Users/jenkins/Home/workspace/LicenseBuilds/build-ios-license/build/ios/THEOplayer_SDK/Core/Event/Player/TrackLists/TextTrackList/TextTrack/TextTrackEvents.swift",
      "line": 27,
      "symbol": "AddCueEvent.type",
      "symbol_kind": "source.lang.swift.decl.var.instance",
      "warning": "undocumented"
    },
    {
      "file": "/Users/jenkins/Home/workspace/LicenseBuilds/build-ios-license/build/ios/THEOplayer_SDK/Core/Event/Player/TrackLists/TextTrackList/TextTrack/TextTrackEvents.swift",
      "line": 28,
      "symbol": "AddCueEvent.date",
      "symbol_kind": "source.lang.swift.decl.var.instance",
      "warning": "undocumented"
    },
    {
      "file": "/Users/jenkins/Home/workspace/LicenseBuilds/build-ios-license/build/ios/THEOplayer_SDK/Core/Event/Player/TrackLists/TextTrackList/TextTrack/TextTrackEvents.swift",
      "line": 29,
      "symbol": "AddCueEvent.cue",
      "symbol_kind": "source.lang.swift.decl.var.instance",
      "warning": "undocumented"
    },
    {
      "file": "/Users/jenkins/Home/workspace/LicenseBuilds/build-ios-license/build/ios/THEOplayer_SDK/Core/Event/Player/TrackLists/TextTrackList/TextTrack/TextTrackEvents.swift",
      "line": 39,
      "symbol": "RemoveCueEvent.type",
      "symbol_kind": "source.lang.swift.decl.var.instance",
      "warning": "undocumented"
    },
    {
      "file": "/Users/jenkins/Home/workspace/LicenseBuilds/build-ios-license/build/ios/THEOplayer_SDK/Core/Event/Player/TrackLists/TextTrackList/TextTrack/TextTrackEvents.swift",
      "line": 40,
      "symbol": "RemoveCueEvent.date",
      "symbol_kind": "source.lang.swift.decl.var.instance",
      "warning": "undocumented"
    },
    {
      "file": "/Users/jenkins/Home/workspace/LicenseBuilds/build-ios-license/build/ios/THEOplayer_SDK/Core/Event/Player/TrackLists/TextTrackList/TextTrack/TextTrackEvents.swift",
      "line": 41,
      "symbol": "RemoveCueEvent.cue",
      "symbol_kind": "source.lang.swift.decl.var.instance",
      "warning": "undocumented"
    },
    {
      "file": "/Users/jenkins/Home/workspace/LicenseBuilds/build-ios-license/build/ios/THEOplayer_SDK/Core/Event/Player/TrackLists/TextTrackList/TextTrack/TextTrackEvents.swift",
      "line": 51,
      "symbol": "EnterCueEvent.type",
      "symbol_kind": "source.lang.swift.decl.var.instance",
      "warning": "undocumented"
    },
    {
      "file": "/Users/jenkins/Home/workspace/LicenseBuilds/build-ios-license/build/ios/THEOplayer_SDK/Core/Event/Player/TrackLists/TextTrackList/TextTrack/TextTrackEvents.swift",
      "line": 52,
      "symbol": "EnterCueEvent.date",
      "symbol_kind": "source.lang.swift.decl.var.instance",
      "warning": "undocumented"
    },
    {
      "file": "/Users/jenkins/Home/workspace/LicenseBuilds/build-ios-license/build/ios/THEOplayer_SDK/Core/Event/Player/TrackLists/TextTrackList/TextTrack/TextTrackEvents.swift",
      "line": 53,
      "symbol": "EnterCueEvent.cue",
      "symbol_kind": "source.lang.swift.decl.var.instance",
      "warning": "undocumented"
    },
    {
      "file": "/Users/jenkins/Home/workspace/LicenseBuilds/build-ios-license/build/ios/THEOplayer_SDK/Core/Event/Player/TrackLists/TextTrackList/TextTrack/TextTrackEvents.swift",
      "line": 63,
      "symbol": "ExitCueEvent.type",
      "symbol_kind": "source.lang.swift.decl.var.instance",
      "warning": "undocumented"
    },
    {
      "file": "/Users/jenkins/Home/workspace/LicenseBuilds/build-ios-license/build/ios/THEOplayer_SDK/Core/Event/Player/TrackLists/TextTrackList/TextTrack/TextTrackEvents.swift",
      "line": 64,
      "symbol": "ExitCueEvent.date",
      "symbol_kind": "source.lang.swift.decl.var.instance",
      "warning": "undocumented"
    },
    {
      "file": "/Users/jenkins/Home/workspace/LicenseBuilds/build-ios-license/build/ios/THEOplayer_SDK/Core/Event/Player/TrackLists/TextTrackList/TextTrack/TextTrackEvents.swift",
      "line": 65,
      "symbol": "ExitCueEvent.cue",
      "symbol_kind": "source.lang.swift.decl.var.instance",
      "warning": "undocumented"
    },
    {
      "file": "/Users/jenkins/Home/workspace/LicenseBuilds/build-ios-license/build/ios/THEOplayer_SDK/Core/Event/Player/TrackLists/TextTrackList/TextTrackListEventTypes.swift",
      "line": 31,
      "symbol": "TextTrackListEventTypes",
      "symbol_kind": "source.lang.swift.decl.struct",
      "warning": "undocumented"
    },
    {
      "file": "/Users/jenkins/Home/workspace/LicenseBuilds/build-ios-license/build/ios/THEOplayer_SDK/Core/Event/Player/TrackLists/TrackListEvents.swift",
      "line": 9,
      "symbol": "TrackEventProtocol",
      "symbol_kind": "source.lang.swift.decl.protocol",
      "warning": "undocumented"
    },
    {
      "file": "/Users/jenkins/Home/workspace/LicenseBuilds/build-ios-license/build/ios/THEOplayer_SDK/Core/Event/Player/TrackLists/TrackListEvents.swift",
      "line": 17,
      "symbol": "TrackChangeEvent.type",
      "symbol_kind": "source.lang.swift.decl.var.instance",
      "warning": "undocumented"
    },
    {
      "file": "/Users/jenkins/Home/workspace/LicenseBuilds/build-ios-license/build/ios/THEOplayer_SDK/Core/Event/Player/TrackLists/TrackListEvents.swift",
      "line": 18,
      "symbol": "TrackChangeEvent.date",
      "symbol_kind": "source.lang.swift.decl.var.instance",
      "warning": "undocumented"
    },
    {
      "file": "/Users/jenkins/Home/workspace/LicenseBuilds/build-ios-license/build/ios/THEOplayer_SDK/Core/Event/Player/TrackLists/TrackListEvents.swift",
      "line": 19,
      "symbol": "TrackChangeEvent.track",
      "symbol_kind": "source.lang.swift.decl.var.instance",
      "warning": "undocumented"
    },
    {
      "file": "/Users/jenkins/Home/workspace/LicenseBuilds/build-ios-license/build/ios/THEOplayer_SDK/Core/Event/Player/TrackLists/TrackListEvents.swift",
      "line": 31,
      "symbol": "AddTrackEvent.type",
      "symbol_kind": "source.lang.swift.decl.var.instance",
      "warning": "undocumented"
    },
    {
      "file": "/Users/jenkins/Home/workspace/LicenseBuilds/build-ios-license/build/ios/THEOplayer_SDK/Core/Event/Player/TrackLists/TrackListEvents.swift",
      "line": 32,
      "symbol": "AddTrackEvent.date",
      "symbol_kind": "source.lang.swift.decl.var.instance",
      "warning": "undocumented"
    },
    {
      "file": "/Users/jenkins/Home/workspace/LicenseBuilds/build-ios-license/build/ios/THEOplayer_SDK/Core/Event/Player/TrackLists/TrackListEvents.swift",
      "line": 33,
      "symbol": "AddTrackEvent.track",
      "symbol_kind": "source.lang.swift.decl.var.instance",
      "warning": "undocumented"
    },
    {
      "file": "/Users/jenkins/Home/workspace/LicenseBuilds/build-ios-license/build/ios/THEOplayer_SDK/Core/Event/Player/TrackLists/TrackListEvents.swift",
      "line": 45,
      "symbol": "RemoveTrackEvent.type",
      "symbol_kind": "source.lang.swift.decl.var.instance",
      "warning": "undocumented"
    },
    {
      "file": "/Users/jenkins/Home/workspace/LicenseBuilds/build-ios-license/build/ios/THEOplayer_SDK/Core/Event/Player/TrackLists/TrackListEvents.swift",
      "line": 46,
      "symbol": "RemoveTrackEvent.date",
      "symbol_kind": "source.lang.swift.decl.var.instance",
      "warning": "undocumented"
    },
    {
      "file": "/Users/jenkins/Home/workspace/LicenseBuilds/build-ios-license/build/ios/THEOplayer_SDK/Core/Event/Player/TrackLists/TrackListEvents.swift",
      "line": 47,
      "symbol": "RemoveTrackEvent.track",
      "symbol_kind": "source.lang.swift.decl.var.instance",
      "warning": "undocumented"
    },
    {
      "file": "/Users/jenkins/Home/workspace/LicenseBuilds/build-ios-license/build/ios/THEOplayer_SDK/Core/Event/Player/TrackLists/VideoTrackList/VideoTrackListEventTypes.swift",
      "line": 32,
      "symbol": "VideoTrackListEventTypes",
      "symbol_kind": "source.lang.swift.decl.struct",
      "warning": "undocumented"
    },
    {
      "file": "/Users/jenkins/Home/workspace/LicenseBuilds/build-ios-license/build/ios/THEOplayer_SDK/Core/Models/AudioQuality.swift",
      "line": 9,
      "symbol": "AudioQuality",
      "symbol_kind": "source.lang.swift.decl.class",
      "warning": "undocumented"
    },
    {
      "file": "/Users/jenkins/Home/workspace/LicenseBuilds/build-ios-license/build/ios/THEOplayer_SDK/Core/Models/JavaScript/THEOScriptMessageHandler.swift",
      "line": 11,
      "symbol": "THEOScriptMessageHandler",
      "symbol_kind": "source.lang.swift.decl.protocol",
      "warning": "undocumented"
    },
    {
      "file": "/Users/jenkins/Home/workspace/LicenseBuilds/build-ios-license/build/ios/THEOplayer_SDK/Core/Models/JavaScript/THEOScriptMessageHandler.swift",
      "line": 15,
      "symbol": "THEOScriptMessage",
      "symbol_kind": "source.lang.swift.decl.protocol",
      "warning": "undocumented"
    },
    {
      "file": "/Users/jenkins/Home/workspace/LicenseBuilds/build-ios-license/build/ios/THEOplayer_SDK/Core/Models/Player/Metrics/Metrics.swift",
      "line": 9,
      "symbol": "Metrics",
      "symbol_kind": "source.lang.swift.decl.class",
      "warning": "undocumented"
    },
    {
      "file": "/Users/jenkins/Home/workspace/LicenseBuilds/build-ios-license/build/ios/THEOplayer_SDK/Core/Models/Player/SourceDescription/DRMConfiguration/DRMConfiguration.swift",
      "line": 72,
      "symbol": "DRMConfiguration.integration",
      "symbol_kind": "source.lang.swift.decl.var.instance",
      "warning": "undocumented"
    },
    {
      "file": "/Users/jenkins/Home/workspace/LicenseBuilds/build-ios-license/build/ios/THEOplayer_SDK/Core/Models/Player/SourceDescription/DRMConfiguration/DRMConfiguration.swift",
      "line": 76,
      "symbol": "FairPlayDRMConfigurationProtocol",
      "symbol_kind": "source.lang.swift.decl.protocol",
      "warning": "undocumented"
    },
    {
      "file": "/Users/jenkins/Home/workspace/LicenseBuilds/build-ios-license/build/ios/THEOplayer_SDK/Core/Models/Player/SourceDescription/DRMConfiguration/DRMConfiguration.swift",
      "line": 80,
      "symbol": "WidevineDRMConfigurationProtocol",
      "symbol_kind": "source.lang.swift.decl.protocol",
      "warning": "undocumented"
    },
    {
      "file": "/Users/jenkins/Home/workspace/LicenseBuilds/build-ios-license/build/ios/THEOplayer_SDK/Core/Models/Player/SourceDescription/DRMConfiguration/DRMConfiguration.swift",
      "line": 84,
      "symbol": "LicenseType",
      "symbol_kind": "source.lang.swift.decl.enum",
      "warning": "undocumented"
    },
    {
      "file": "/Users/jenkins/Home/workspace/LicenseBuilds/build-ios-license/build/ios/THEOplayer_SDK/Core/Models/Player/SourceDescription/DRMConfiguration/DRMConfiguration.swift",
      "line": 89,
      "symbol": "DRMIntegration",
      "symbol_kind": "source.lang.swift.decl.enum",
      "warning": "undocumented"
    },
    {
      "file": "/Users/jenkins/Home/workspace/LicenseBuilds/build-ios-license/build/ios/THEOplayer_SDK/Core/Models/Player/SourceDescription/DRMConfiguration/FairPlayDRMConfiguration.swift",
      "line": 15,
      "symbol": "FairPlayDRMConfiguration.integration",
      "symbol_kind": "source.lang.swift.decl.var.instance",
      "warning": "undocumented"
    },
    {
      "file": "/Users/jenkins/Home/workspace/LicenseBuilds/build-ios-license/build/ios/THEOplayer_SDK/Core/Models/Player/SourceDescription/DRMConfiguration/FairPlayDRMConfiguration.swift",
      "line": 18,
      "symbol": "FairPlayDRMConfiguration.init(licenseAcquisitionURL:certificateURL:headers:licenseType:)",
      "symbol_kind": "source.lang.swift.decl.function.method.instance",
      "warning": "undocumented"
    },
    {
      "file": "/Users/jenkins/Home/workspace/LicenseBuilds/build-ios-license/build/ios/THEOplayer_SDK/Core/Models/Player/SourceDescription/DRMConfiguration/VimondDRMConfiguration.swift",
      "line": 11,
      "symbol": "VimondDRMConfiguration",
      "symbol_kind": "source.lang.swift.decl.class",
      "warning": "undocumented"
    },
    {
      "file": "/Users/jenkins/Home/workspace/LicenseBuilds/build-ios-license/build/ios/THEOplayer_SDK/Core/Models/Player/SourceDescription/DRMConfiguration/WidevineDRMConfiguration.swift",
      "line": 17,
      "symbol": "WidevineDRMConfiguration.integration",
      "symbol_kind": "source.lang.swift.decl.var.instance",
      "warning": "undocumented"
    },
    {
      "file": "/Users/jenkins/Home/workspace/LicenseBuilds/build-ios-license/build/ios/THEOplayer_SDK/Core/Models/Player/TrackList/Track/TextTrackMode.swift",
      "line": 11,
      "symbol": "TextTrackMode",
      "symbol_kind": "source.lang.swift.decl.enum",
      "warning": "undocumented"
    },
    {
      "file": "/Users/jenkins/Home/workspace/LicenseBuilds/build-ios-license/build/ios/THEOplayer_SDK/Core/Models/Preload.swift",
      "line": 7,
      "symbol": "Preload",
      "symbol_kind": "source.lang.swift.decl.enum",
      "warning": "undocumented"
    },
    {
      "file": "/Users/jenkins/Home/workspace/LicenseBuilds/build-ios-license/build/ios/THEOplayer_SDK/Core/Models/Presentation Mode/PresentationMode.swift",
      "line": 7,
      "symbol": "PresentationMode",
      "symbol_kind": "source.lang.swift.decl.enum",
      "warning": "undocumented"
    },
    {
      "file": "/Users/jenkins/Home/workspace/LicenseBuilds/build-ios-license/build/ios/THEOplayer_SDK/Core/Models/ReadyState.swift",
      "line": 7,
      "symbol": "ReadyState",
      "symbol_kind": "source.lang.swift.decl.enum",
      "warning": "undocumented"
    },
    {
      "file": "/Users/jenkins/Home/workspace/LicenseBuilds/build-ios-license/build/ios/THEOplayer_SDK/Core/Models/SourceDescription/Analytics/ConvivaConfiguration.swift",
      "line": 11,
      "symbol": "ConvivaConfiguration",
      "symbol_kind": "source.lang.swift.decl.class",
      "warning": "undocumented"
    },
    {
      "file": "/Users/jenkins/Home/workspace/LicenseBuilds/build-ios-license/build/ios/THEOplayer_SDK/Core/Models/SourceDescription/Analytics/ConvivaContentMetadata.swift",
      "line": 11,
      "symbol": "ConvivaContentMetadata",
      "symbol_kind": "source.lang.swift.decl.class",
      "warning": "undocumented"
    },
    {
      "file": "/Users/jenkins/Home/workspace/LicenseBuilds/build-ios-license/build/ios/THEOplayer_SDK/Core/Util/CodableUtil.swift",
      "line": 24,
      "symbol": "serializeObjectToJSON(object:)",
      "symbol_kind": "source.lang.swift.decl.function.free",
      "warning": "undocumented"
    },
    {
      "file": "/Users/jenkins/Home/workspace/LicenseBuilds/build-ios-license/build/ios/THEOplayer_SDK/iOS/API/Ad_API.swift",
      "line": 84,
      "symbol": "AdIntegrationKind",
      "symbol_kind": "source.lang.swift.decl.enum",
      "warning": "undocumented"
    },
    {
      "file": "/Users/jenkins/Home/workspace/LicenseBuilds/build-ios-license/build/ios/THEOplayer_SDK/iOS/API/Cache_API.swift",
      "line": 31,
      "symbol": "CacheStatus.uninitialised",
      "symbol_kind": "source.lang.swift.decl.enumelement",
      "warning": "undocumented"
    },
    {
      "file": "/Users/jenkins/Home/workspace/LicenseBuilds/build-ios-license/build/ios/THEOplayer_SDK/iOS/API/Cache_API.swift",
      "line": 32,
      "symbol": "CacheStatus.initialised",
      "symbol_kind": "source.lang.swift.decl.enumelement",
      "warning": "undocumented"
    },
    {
      "file": "/Users/jenkins/Home/workspace/LicenseBuilds/build-ios-license/build/ios/THEOplayer_SDK/iOS/API/Cache_API.swift",
      "line": 44,
      "symbol": "CachingParameters.init(expirationDate:bandwidth:)",
      "symbol_kind": "source.lang.swift.decl.function.method.instance",
      "warning": "undocumented"
    },
    {
      "file": "/Users/jenkins/Home/workspace/LicenseBuilds/build-ios-license/build/ios/THEOplayer_SDK/iOS/API/Cache_API.swift",
      "line": 88,
      "symbol": "CachingTaskStatus.idle",
      "symbol_kind": "source.lang.swift.decl.enumelement",
      "warning": "undocumented"
    },
    {
      "file": "/Users/jenkins/Home/workspace/LicenseBuilds/build-ios-license/build/ios/THEOplayer_SDK/iOS/API/Cache_API.swift",
      "line": 89,
      "symbol": "CachingTaskStatus.loading",
      "symbol_kind": "source.lang.swift.decl.enumelement",
      "warning": "undocumented"
    },
    {
      "file": "/Users/jenkins/Home/workspace/LicenseBuilds/build-ios-license/build/ios/THEOplayer_SDK/iOS/API/Cache_API.swift",
      "line": 90,
      "symbol": "CachingTaskStatus.done",
      "symbol_kind": "source.lang.swift.decl.enumelement",
      "warning": "undocumented"
    },
    {
      "file": "/Users/jenkins/Home/workspace/LicenseBuilds/build-ios-license/build/ios/THEOplayer_SDK/iOS/API/Cache_API.swift",
      "line": 91,
      "symbol": "CachingTaskStatus.error",
      "symbol_kind": "source.lang.swift.decl.enumelement",
      "warning": "undocumented"
    },
    {
      "file": "/Users/jenkins/Home/workspace/LicenseBuilds/build-ios-license/build/ios/THEOplayer_SDK/iOS/API/Cache_API.swift",
      "line": 92,
      "symbol": "CachingTaskStatus.evicted",
      "symbol_kind": "source.lang.swift.decl.enumelement",
      "warning": "undocumented"
    },
    {
      "file": "/Users/jenkins/Home/workspace/LicenseBuilds/build-ios-license/build/ios/THEOplayer_SDK/iOS/API/CachingTaskLicense_API.swift",
      "line": 11,
      "symbol": "CachingTaskLicense",
      "symbol_kind": "source.lang.swift.decl.protocol",
      "warning": "undocumented"
    },
    {
      "file": "/Users/jenkins/Home/workspace/LicenseBuilds/build-ios-license/build/ios/THEOplayer_SDK/iOS/API/CompanionAd_API.swift",
      "line": 26,
      "symbol": "CompanionAd.type",
      "symbol_kind": "source.lang.swift.decl.var.instance",
      "warning": "undocumented"
    },
    {
      "file": "/Users/jenkins/Home/workspace/LicenseBuilds/build-ios-license/build/ios/THEOplayer_SDK/iOS/API/ServerSideAdInsertionConfiguration_API.swift",
      "line": 20,
      "symbol": "SSAIIntegrationId.YospaceSSAIIntegrationID",
      "symbol_kind": "source.lang.swift.decl.enumelement",
      "warning": "undocumented"
    },
    {
      "file": "/Users/jenkins/Home/workspace/LicenseBuilds/build-ios-license/build/ios/THEOplayer_SDK/iOS/API/ServerSideAdInsertionConfiguration_API.swift",
      "line": 24,
      "symbol": "StreamType",
      "symbol_kind": "source.lang.swift.decl.enum",
      "warning": "undocumented"
    },
    {
      "file": "/Users/jenkins/Home/workspace/LicenseBuilds/build-ios-license/build/ios/THEOplayer_SDK/iOS/API/ServerSideAdInsertionConfiguration_API.swift",
      "line": 36,
      "symbol": "YospaceServerSideAdInsertionConfiguration.logLevel",
      "symbol_kind": "source.lang.swift.decl.var.instance",
      "warning": "undocumented"
    },
    {
      "file": "/Users/jenkins/Home/workspace/LicenseBuilds/build-ios-license/build/ios/THEOplayer_SDK/iOS/API/ServerSideAdInsertionConfiguration_API.swift",
      "line": 47,
      "symbol": "YospaceLogLevelConfiguration",
      "symbol_kind": "source.lang.swift.decl.struct",
      "warning": "undocumented"
    },
    {
      "file": "/Users/jenkins/Home/workspace/LicenseBuilds/build-ios-license/build/ios/THEOplayer_SDK/iOS/API/THEOplayer_API+iOS+Yospace.swift",
      "line": 14,
      "symbol": "THEOplayer.yospace",
      "symbol_kind": "source.lang.swift.decl.var.instance",
      "warning": "undocumented"
    },
    {
      "file": "/Users/jenkins/Home/workspace/LicenseBuilds/build-ios-license/build/ios/THEOplayer_SDK/iOS/API/THEOplayer_API+iOS.swift",
      "line": 90,
      "symbol": "THEOplayer.unload()",
      "symbol_kind": "source.lang.swift.decl.function.method.instance",
      "warning": "undocumented"
    },
    {
      "file": "/Users/jenkins/Home/workspace/LicenseBuilds/build-ios-license/build/ios/THEOplayer_SDK/iOS/API/TypedSource_API+iOS.swift",
      "line": 13,
      "symbol": "TypedSource.init(src:type:drm:crossOrigin:ssai:)",
      "symbol_kind": "source.lang.swift.decl.function.method.instance",
      "warning": "undocumented"
    },
    {
      "file": "/Users/jenkins/Home/workspace/LicenseBuilds/build-ios-license/build/ios/THEOplayer_SDK/iOS/API/VRConfiguration_API.swift",
      "line": 11,
      "symbol": "StereoMode",
      "symbol_kind": "source.lang.swift.decl.enum",
      "warning": "undocumented"
    },
    {
      "file": "/Users/jenkins/Home/workspace/LicenseBuilds/build-ios-license/build/ios/THEOplayer_SDK/iOS/API/Yospace_API.swift",
      "line": 12,
      "symbol": "Yospace",
      "symbol_kind": "source.lang.swift.decl.protocol",
      "warning": "undocumented"
    },
    {
      "file": "/Users/jenkins/Home/workspace/LicenseBuilds/build-ios-license/build/ios/THEOplayer_SDK/iOS/Chromecast/API/Chromecast_API.swift",
      "line": 68,
      "symbol": "CastError",
      "symbol_kind": "source.lang.swift.decl.class",
      "warning": "undocumented"
    },
    {
      "file": "/Users/jenkins/Home/workspace/LicenseBuilds/build-ios-license/build/ios/THEOplayer_SDK/iOS/Chromecast/API/Chromecast_API.swift",
      "line": 78,
      "symbol": "ErrorCode",
      "symbol_kind": "source.lang.swift.decl.enum",
      "warning": "undocumented"
    },
    {
      "file": "/Users/jenkins/Home/workspace/LicenseBuilds/build-ios-license/build/ios/THEOplayer_SDK/iOS/Chromecast/Event/ChromecastEventTypes.swift",
      "line": 20,
      "symbol": "ChromecastEventTypes",
      "symbol_kind": "source.lang.swift.decl.struct",
      "warning": "undocumented"
    },
    {
      "file": "/Users/jenkins/Home/workspace/LicenseBuilds/build-ios-license/build/ios/THEOplayer_SDK/iOS/Chromecast/Event/ChromecastEvents.swift",
      "line": 14,
      "symbol": "StateChangeEvent.type",
      "symbol_kind": "source.lang.swift.decl.var.instance",
      "warning": "undocumented"
    },
    {
      "file": "/Users/jenkins/Home/workspace/LicenseBuilds/build-ios-license/build/ios/THEOplayer_SDK/iOS/Chromecast/Event/ChromecastEvents.swift",
      "line": 15,
      "symbol": "StateChangeEvent.date",
      "symbol_kind": "source.lang.swift.decl.var.instance",
      "warning": "undocumented"
    },
    {
      "file": "/Users/jenkins/Home/workspace/LicenseBuilds/build-ios-license/build/ios/THEOplayer_SDK/iOS/Chromecast/Event/ChromecastEvents.swift",
      "line": 17,
      "symbol": "StateChangeEvent.state",
      "symbol_kind": "source.lang.swift.decl.var.instance",
      "warning": "undocumented"
    },
    {
      "file": "/Users/jenkins/Home/workspace/LicenseBuilds/build-ios-license/build/ios/THEOplayer_SDK/iOS/Chromecast/Event/ChromecastEvents.swift",
      "line": 30,
      "symbol": "CastErrorEvent.type",
      "symbol_kind": "source.lang.swift.decl.var.instance",
      "warning": "undocumented"
    },
    {
      "file": "/Users/jenkins/Home/workspace/LicenseBuilds/build-ios-license/build/ios/THEOplayer_SDK/iOS/Chromecast/Event/ChromecastEvents.swift",
      "line": 31,
      "symbol": "CastErrorEvent.date",
      "symbol_kind": "source.lang.swift.decl.var.instance",
      "warning": "undocumented"
    },
    {
      "file": "/Users/jenkins/Home/workspace/LicenseBuilds/build-ios-license/build/ios/THEOplayer_SDK/iOS/Chromecast/Event/ChromecastEvents.swift",
      "line": 33,
      "symbol": "CastErrorEvent.error",
      "symbol_kind": "source.lang.swift.decl.var.instance",
      "warning": "undocumented"
    },
    {
      "file": "/Users/jenkins/Home/workspace/LicenseBuilds/build-ios-license/build/ios/THEOplayer_SDK/iOS/Chromecast/Models/SourceDescription/ChromecastMetadataDescription.swift",
      "line": 105,
      "symbol": "ChromecastMetadataType.MOVIE",
      "symbol_kind": "source.lang.swift.decl.enumelement",
      "warning": "undocumented"
    },
    {
      "file": "/Users/jenkins/Home/workspace/LicenseBuilds/build-ios-license/build/ios/THEOplayer_SDK/iOS/Chromecast/Models/SourceDescription/ChromecastMetadataDescription.swift",
      "line": 106,
      "symbol": "ChromecastMetadataType.AUDIO",
      "symbol_kind": "source.lang.swift.decl.enumelement",
      "warning": "undocumented"
    },
    {
      "file": "/Users/jenkins/Home/workspace/LicenseBuilds/build-ios-license/build/ios/THEOplayer_SDK/iOS/Chromecast/Models/SourceDescription/ChromecastMetadataDescription.swift",
      "line": 107,
      "symbol": "ChromecastMetadataType.TV_SHOW",
      "symbol_kind": "source.lang.swift.decl.enumelement",
      "warning": "undocumented"
    },
    {
      "file": "/Users/jenkins/Home/workspace/LicenseBuilds/build-ios-license/build/ios/THEOplayer_SDK/iOS/Chromecast/Models/SourceDescription/ChromecastMetadataDescription.swift",
      "line": 108,
      "symbol": "ChromecastMetadataType.GENERIC",
      "symbol_kind": "source.lang.swift.decl.enumelement",
      "warning": "undocumented"
    },
    {
      "file": "/Users/jenkins/Home/workspace/LicenseBuilds/build-ios-license/build/ios/THEOplayer_SDK/iOS/Event/Player/Ads/AdsEventTypes.swift",
      "line": 68,
      "symbol": "AdsEventTypes",
      "symbol_kind": "source.lang.swift.decl.struct",
      "warning": "undocumented"
    },
    {
      "file": "/Users/jenkins/Home/workspace/LicenseBuilds/build-ios-license/build/ios/THEOplayer_SDK/iOS/Event/Player/Ads/AdsEvents.swift",
      "line": 11,
      "symbol": "AdEventProtocol",
      "symbol_kind": "source.lang.swift.decl.protocol",
      "warning": "undocumented"
    },
    {
      "file": "/Users/jenkins/Home/workspace/LicenseBuilds/build-ios-license/build/ios/THEOplayer_SDK/iOS/Event/Player/Ads/AdsEvents.swift",
      "line": 15,
      "symbol": "AdErrorEventProtocol",
      "symbol_kind": "source.lang.swift.decl.protocol",
      "warning": "undocumented"
    },
    {
      "file": "/Users/jenkins/Home/workspace/LicenseBuilds/build-ios-license/build/ios/THEOplayer_SDK/iOS/Event/Player/Ads/AdsEvents.swift",
      "line": 20,
      "symbol": "AdBreakEventProtocol",
      "symbol_kind": "source.lang.swift.decl.protocol",
      "warning": "undocumented"
    },
    {
      "file": "/Users/jenkins/Home/workspace/LicenseBuilds/build-ios-license/build/ios/THEOplayer_SDK/iOS/Event/Player/Ads/AdsEvents.swift",
      "line": 24,
      "symbol": "AdEvent",
      "symbol_kind": "source.lang.swift.decl.class",
      "warning": "undocumented"
    },
    {
      "file": "/Users/jenkins/Home/workspace/LicenseBuilds/build-ios-license/build/ios/THEOplayer_SDK/iOS/Event/Player/Ads/AdsEvents.swift",
      "line": 98,
      "symbol": "AdErrorEvent.type",
      "symbol_kind": "source.lang.swift.decl.var.instance",
      "warning": "undocumented"
    },
    {
      "file": "/Users/jenkins/Home/workspace/LicenseBuilds/build-ios-license/build/ios/THEOplayer_SDK/iOS/Event/Player/Ads/AdsEvents.swift",
      "line": 99,
      "symbol": "AdErrorEvent.date",
      "symbol_kind": "source.lang.swift.decl.var.instance",
      "warning": "undocumented"
    },
    {
      "file": "/Users/jenkins/Home/workspace/LicenseBuilds/build-ios-license/build/ios/THEOplayer_SDK/iOS/Event/Player/Ads/AdsEvents.swift",
      "line": 100,
      "symbol": "AdErrorEvent.ad",
      "symbol_kind": "source.lang.swift.decl.var.instance",
      "warning": "undocumented"
    },
    {
      "file": "/Users/jenkins/Home/workspace/LicenseBuilds/build-ios-license/build/ios/THEOplayer_SDK/iOS/Event/Player/Ads/AdsEvents.swift",
      "line": 101,
      "symbol": "AdErrorEvent.error",
      "symbol_kind": "source.lang.swift.decl.var.instance",
      "warning": "undocumented"
    },
    {
      "file": "/Users/jenkins/Home/workspace/LicenseBuilds/build-ios-license/build/ios/THEOplayer_SDK/iOS/Event/Player/Ads/AdsEvents.swift",
      "line": 111,
      "symbol": "AdBreakEvent",
      "symbol_kind": "source.lang.swift.decl.class",
      "warning": "undocumented"
    },
    {
      "file": "/Users/jenkins/Home/workspace/LicenseBuilds/build-ios-license/build/ios/THEOplayer_SDK/iOS/Event/Player/Cache/CacheEventTypes.swift",
      "line": 17,
      "symbol": "CacheEventTypes",
      "symbol_kind": "source.lang.swift.decl.struct",
      "warning": "undocumented"
    },
    {
      "file": "/Users/jenkins/Home/workspace/LicenseBuilds/build-ios-license/build/ios/THEOplayer_SDK/iOS/Event/Player/Cache/CacheEvents.swift",
      "line": 11,
      "symbol": "CacheEvent",
      "symbol_kind": "source.lang.swift.decl.class",
      "warning": "undocumented"
    },
    {
      "file": "/Users/jenkins/Home/workspace/LicenseBuilds/build-ios-license/build/ios/THEOplayer_SDK/iOS/Event/Player/Cache/CachingTaskEventTypes.swift",
      "line": 24,
      "symbol": "CachingTaskEventTypes",
      "symbol_kind": "source.lang.swift.decl.struct",
      "warning": "undocumented"
    },
    {
      "file": "/Users/jenkins/Home/workspace/LicenseBuilds/build-ios-license/build/ios/THEOplayer_SDK/iOS/Event/Player/RelatedContent/RelatedContentEventTypes.swift",
      "line": 29,
      "symbol": "RelatedContentEventTypes",
      "symbol_kind": "source.lang.swift.decl.struct",
      "warning": "undocumented"
    },
    {
      "file": "/Users/jenkins/Home/workspace/LicenseBuilds/build-ios-license/build/ios/THEOplayer_SDK/iOS/Event/Player/RelatedContent/RelatedContentEvents.swift",
      "line": 11,
      "symbol": "RelatedContentEvent",
      "symbol_kind": "source.lang.swift.decl.class",
      "warning": "undocumented"
    },
    {
      "file": "/Users/jenkins/Home/workspace/LicenseBuilds/build-ios-license/build/ios/THEOplayer_SDK/iOS/Event/Player/VR/VREventTypes.swift",
      "line": 23,
      "symbol": "VREventTypes",
      "symbol_kind": "source.lang.swift.decl.struct",
      "warning": "undocumented"
    },
    {
      "file": "/Users/jenkins/Home/workspace/LicenseBuilds/build-ios-license/build/ios/THEOplayer_SDK/iOS/Event/Player/VR/VREvents.swift",
      "line": 11,
      "symbol": "VREvent",
      "symbol_kind": "source.lang.swift.decl.class",
      "warning": "undocumented"
    },
    {
      "file": "/Users/jenkins/Home/workspace/LicenseBuilds/build-ios-license/build/ios/THEOplayer_SDK/iOS/Event/Player/Yospace/YospaceEventTypes.swift",
      "line": 17,
      "symbol": "YospaceEventTypes",
      "symbol_kind": "source.lang.swift.decl.struct",
      "warning": "undocumented"
    },
    {
      "file": "/Users/jenkins/Home/workspace/LicenseBuilds/build-ios-license/build/ios/THEOplayer_SDK/iOS/Event/Player/Yospace/YospaceEvents.swift",
      "line": 11,
      "symbol": "YospaceEvent",
      "symbol_kind": "source.lang.swift.decl.class",
      "warning": "undocumented"
    },
    {
      "file": "/Users/jenkins/Home/workspace/LicenseBuilds/build-ios-license/build/ios/THEOplayer_SDK/iOS/Models/Player/Ads/AdType.swift",
      "line": 11,
      "symbol": "AdType",
      "symbol_kind": "source.lang.swift.decl.class",
      "warning": "undocumented"
    },
    {
      "file": "/Users/jenkins/Home/workspace/LicenseBuilds/build-ios-license/build/ios/THEOplayer_SDK/iOS/Models/Player/Configurations/AdPreloadType.swift",
      "line": 11,
      "symbol": "AdPreloadType",
      "symbol_kind": "source.lang.swift.decl.enum",
      "warning": "undocumented"
    },
    {
      "file": "/Users/jenkins/Home/workspace/LicenseBuilds/build-ios-license/build/ios/THEOplayer_SDK/iOS/Models/Player/Configurations/CastConfiguration.swift",
      "line": 11,
      "symbol": "CastConfiguration",
      "symbol_kind": "source.lang.swift.decl.class",
      "warning": "undocumented"
    },
    {
      "file": "/Users/jenkins/Home/workspace/LicenseBuilds/build-ios-license/build/ios/THEOplayer_SDK/iOS/Models/Player/Configurations/CastConfiguration.swift",
      "line": 20,
      "symbol": "CastStrategy",
      "symbol_kind": "source.lang.swift.decl.enum",
      "warning": "undocumented"
    },
    {
      "file": "/Users/jenkins/Home/workspace/LicenseBuilds/build-ios-license/build/ios/THEOplayer_SDK/iOS/Models/Player/SourceDescription/Ads/AdDescription.swift",
      "line": 14,
      "symbol": "AdDescription.integration",
      "symbol_kind": "source.lang.swift.decl.var.instance",
      "warning": "undocumented"
    },
    {
      "file": "/Users/jenkins/Home/workspace/LicenseBuilds/build-ios-license/build/ios/THEOplayer_SDK/iOS/Models/Player/SourceDescription/Ads/AdDescription.swift",
      "line": 21,
      "symbol": "THEOAdDescription.integration",
      "symbol_kind": "source.lang.swift.decl.var.instance",
      "warning": "undocumented"
    },
    {
      "file": "/Users/jenkins/Home/workspace/LicenseBuilds/build-ios-license/build/ios/THEOplayer_SDK/iOS/Models/Player/SourceDescription/Ads/AdDescription.swift",
      "line": 81,
      "symbol": "AdIntegration",
      "symbol_kind": "source.lang.swift.decl.enum",
      "warning": "undocumented"
    },
    {
      "file": "/Users/jenkins/Home/workspace/LicenseBuilds/build-ios-license/build/ios/THEOplayer_SDK/iOS/Models/Player/SourceDescription/Ads/GoogleImaAdDescription.swift",
      "line": 14,
      "symbol": "GoogleImaAdDescription.integration",
      "symbol_kind": "source.lang.swift.decl.var.instance",
      "warning": "undocumented"
    },
    {
      "file": "/Users/jenkins/Home/workspace/LicenseBuilds/build-ios-license/build/ios/THEOplayer_SDK/iOS/Models/Player/SourceDescription/Ads/SpotXAdDescription.swift",
      "line": 14,
      "symbol": "SpotXAdDescription.integration",
      "symbol_kind": "source.lang.swift.decl.var.instance",
      "warning": "undocumented"
    },
    {
      "file": "/Users/jenkins/Home/workspace/LicenseBuilds/build-ios-license/build/ios/THEOplayer_SDK/iOS/Models/Player/SourceDescription/Analytics/AnalyticsDescription.swift",
      "line": 13,
      "symbol": "AnalyticsDescription.integration",
      "symbol_kind": "source.lang.swift.decl.var.instance",
      "warning": "undocumented"
    },
    {
      "file": "/Users/jenkins/Home/workspace/LicenseBuilds/build-ios-license/build/ios/THEOplayer_SDK/iOS/Models/Player/SourceDescription/Analytics/AnalyticsDescription.swift",
      "line": 16,
      "symbol": "AnalyticsIntegration",
      "symbol_kind": "source.lang.swift.decl.enum",
      "warning": "undocumented"
    },
    {
      "file": "/Users/jenkins/Home/workspace/LicenseBuilds/build-ios-license/build/ios/THEOplayer_SDK/iOS/Models/Player/SourceDescription/Analytics/MoatOptions.swift",
      "line": 17,
      "symbol": "MoatOptions.integration",
      "symbol_kind": "source.lang.swift.decl.var.instance",
      "warning": "undocumented"
    },
    {
      "file": "/Users/jenkins/Home/workspace/LicenseBuilds/build-ios-license/build/ios/THEOplayer_SDK/iOS/Models/Player/SourceDescription/Analytics/YouboraOptions.swift",
      "line": 16,
      "symbol": "YouboraOptions.integration",
      "symbol_kind": "source.lang.swift.decl.var.instance",
      "warning": "undocumented"
    },
    {
      "file": "/Users/jenkins/Home/workspace/LicenseBuilds/build-ios-license/build/ios/THEOplayer_SDK/iOS/Models/Player/THEOplayer + Extensions/THEOplayerInternal_iOS.swift",
      "line": null,
      "symbol": "THEOplayerInternal_iOS",
      "symbol_kind": "source.lang.swift.decl.extension",
      "warning": "undocumented"
    },
    {
      "file": "/Users/jenkins/Home/workspace/LicenseBuilds/build-ios-license/build/ios/THEOplayer_SDK/iOS/Models/Presentation Mode/PictureinPicture/PictureInPictureCorner.swift",
      "line": 31,
      "symbol": "PictureInPictureCorner.topLeft",
      "symbol_kind": "source.lang.swift.decl.enumelement",
      "warning": "undocumented"
    },
    {
      "file": "/Users/jenkins/Home/workspace/LicenseBuilds/build-ios-license/build/ios/THEOplayer_SDK/iOS/Models/Presentation Mode/PictureinPicture/PictureInPictureCorner.swift",
      "line": 32,
      "symbol": "PictureInPictureCorner.topRight",
      "symbol_kind": "source.lang.swift.decl.enumelement",
      "warning": "undocumented"
    },
    {
      "file": "/Users/jenkins/Home/workspace/LicenseBuilds/build-ios-license/build/ios/THEOplayer_SDK/iOS/Models/Presentation Mode/PictureinPicture/PictureInPictureCorner.swift",
      "line": 33,
      "symbol": "PictureInPictureCorner.bottomLeft",
      "symbol_kind": "source.lang.swift.decl.enumelement",
      "warning": "undocumented"
    },
    {
      "file": "/Users/jenkins/Home/workspace/LicenseBuilds/build-ios-license/build/ios/THEOplayer_SDK/iOS/Models/Presentation Mode/PictureinPicture/PictureInPictureCorner.swift",
      "line": 34,
      "symbol": "PictureInPictureCorner.bottomRight",
      "symbol_kind": "source.lang.swift.decl.enumelement",
      "warning": "undocumented"
    },
    {
      "file": "/Users/jenkins/Home/workspace/LicenseBuilds/build-ios-license/build/ios/THEOplayer_SDK/iOS/Models/Yospace/YospaceController.swift",
      "line": null,
      "symbol": "YospaceController",
      "symbol_kind": "source.lang.swift.decl.extension",
      "warning": "undocumented"
    }
  ],
  "source_directory": "/Users/jenkins/Home/workspace/LicenseBuilds/build-ios-license/build/ios"
}